[
    {
        "page": 1,
        "pages": 330,
        "per_page": 50,
        "total": 16492,
        "sourceid": "2",
        "sourcename": "World Development Indicators",
        "lastupdated": "2022-12-22"
    },
    [
        {
            "indicator": {
                "id": "NY.GDP.PCAP.CD",
                "value": "GDP per capita (current US$)"
            },
            "country": {
                "id": "ZH",
                "value": "Africa Eastern and Southern"
            },
            "countryiso3code": "AFE",
            "date": "2021",
            "value": 1537.3360209254,
            "unit": "",
            "obs_status": "",
            "decimal": 1
        },
        {
            "indicator": {
                "id": "NY.GDP.PCAP.CD",
                "value": "GDP per capita (current US$)"
            },
            "country": {
                "id": "ZH",
                "value": "Africa Eastern and Southern"
            },
            "countryiso3code": "AFE",
            "date": "2020",
            "value": 1353.7691597287,
            "unit": "",
            "obs_status": "",
            "decimal": 1
        },
        {
            "indicator": {
                "id": "NY.GDP.PCAP.CD",
                "value": "GDP per capita (current US$)"
            },
            "country": {
                "id": "ZH",
                "value": "Africa Eastern and Southern"
            },
            "countryiso3code": "AFE",
            "date": "2019",
            "value": 1500.22927438203,
            "unit": "",
            "obs_status": "",
            "decimal": 1
        },
        {
            "indicator": {
                "id": "NY.GDP.PCAP.CD",
                "value": "GDP per capita (current US$)"
            },
            "country": {
                "id": "ZH",
                "value": "Africa Eastern and Southern"
            },
            "countryiso3code": "AFE",
            "date": "2018",
            "value": 1550.18056734463,
            "unit": "",
            "obs_status": "",
            "decimal": 1
        },
        {
            "indicator": {
                "id": "NY.GDP.PCAP.CD",
                "value": "GDP per capita (current US$)"
            },
            "country": {
                "id": "ZH",
                "value": "Africa Eastern and Southern"
            },
            "countryiso3code": "AFE",
            "date": "2017",
            "value": 1613.78855537557,
            "unit": "",
            "obs_status": "",
            "decimal": 1
        },
        {
            "indicator": {
                "id": "NY.GDP.PCAP.CD",
                "value": "GDP per capita (current US$)"
            },
            "country": {
                "id": "ZH",
                "value": "Africa Eastern and Southern"
            },
            "countryiso3code": "AFE",
            "date": "2016",
            "value": 1432.11182684485,
            "unit": "",
            "obs_status": "",
            "decimal": 1
        },
        {
            "indicator": {
                "id": "NY.GDP.PCAP.CD",
                "value": "GDP per capita (current US$)"
            },
            "country": {
                "id": "ZH",
                "value": "Africa Eastern and Southern"
            },
            "countryiso3code": "AFE",
            "date": "2015",
            "value": 1540.85035410697,
            "unit": "",
            "obs_status": "",
            "decimal": 1
        },
        {
            "indicator": {
                "id": "NY.GDP.PCAP.CD",
                "value": "GDP per capita (current US$)"
            },
            "country": {
                "id": "ZH",
                "value": "Africa Eastern and Southern"
            },
            "countryiso3code": "AFE",
            "date": "2014",
            "value": 1719.80919035642,
            "unit": "",
            "obs_status": "",
            "decimal": 1
        },
        {
            "indicator": {
                "id": "NY.GDP.PCAP.CD",
                "value": "GDP per capita (current US$)"
            },
            "country": {
                "id": "ZH",
                "value": "Africa Eastern and Southern"
            },
            "countryiso3code": "AFE",
            "date": "2013",
            "value": 1731.79597586613,
            "unit": "",
            "obs_status": "",
            "decimal": 1
        },
        {
            "indicator": {
                "id": "NY.GDP.PCAP.CD",
                "value": "GDP per capita (current US$)"
            },
            "country": {
                "id": "ZH",
                "value": "Africa Eastern and Southern"
            },
            "countryiso3code": "AFE",
            "date": "2012",
            "value": 1760.21622940618,
            "unit": "",
            "obs_status": "",
            "decimal": 1
        },
        {
            "indicator": {
                "id": "NY.GDP.PCAP.CD",
                "value": "GDP per capita (current US$)"
            },
            "country": {
                "id": "ZH",
                "value": "Africa Eastern and Southern"
            },
            "countryiso3code": "AFE",
            "date": "2011",
            "value": 1792.84742828716,
            "unit": "",
            "obs_status": "",
            "decimal": 1
        },
        {
            "indicator": {
                "id": "NY.GDP.PCAP.CD",
                "value": "GDP per capita (current US$)"
            },
            "country": {
                "id": "ZH",
                "value": "Africa Eastern and Southern"
            },
            "countryiso3code": "AFE",
            "date": "2010",
            "value": 1643.55049467824,
            "unit": "",
            "obs_status": "",
            "decimal": 1
        },
        {
            "indicator": {
                "id": "NY.GDP.PCAP.CD",
                "value": "GDP per capita (current US$)"
            },
            "country": {
                "id": "ZH",
                "value": "Africa Eastern and Southern"
            },
            "countryiso3code": "AFE",
            "date": "2009",
            "value": 1411.57515888916,
            "unit": "",
            "obs_status": "",
            "decimal": 1
        },
        {
            "indicator": {
                "id": "NY.GDP.PCAP.CD",
                "value": "GDP per capita (current US$)"
            },
            "country": {
                "id": "ZH",
                "value": "Africa Eastern and Southern"
            },
            "countryiso3code": "AFE",
            "date": "2008",
            "value": 1428.33486534173,
            "unit": "",
            "obs_status": "",
            "decimal": 1
        },
        {
            "indicator": {
                "id": "NY.GDP.PCAP.CD",
                "value": "GDP per capita (current US$)"
            },
            "country": {
                "id": "ZH",
                "value": "Africa Eastern and Southern"
            },
            "countryiso3code": "AFE",
            "date": "2007",
            "value": 1369.80942676893,
            "unit": "",
            "obs_status": "",
            "decimal": 1
        },
        {
            "indicator": {
                "id": "NY.GDP.PCAP.CD",
                "value": "GDP per capita (current US$)"
            },
            "country": {
                "id": "ZH",
                "value": "Africa Eastern and Southern"
            },
            "countryiso3code": "AFE",
            "date": "2006",
            "value": 1226.18248018982,
            "unit": "",
            "obs_status": "",
            "decimal": 1
        },
        {
            "indicator": {
                "id": "NY.GDP.PCAP.CD",
                "value": "GDP per capita (current US$)"
            },
            "country": {
                "id": "ZH",
                "value": "Africa Eastern and Southern"
            },
            "countryiso3code": "AFE",
            "date": "2005",
            "value": 1120.44678810807,
            "unit": "",
            "obs_status": "",
            "decimal": 1
        },
        {
            "indicator": {
                "id": "NY.GDP.PCAP.CD",
                "value": "GDP per capita (current US$)"
            },
            "country": {
                "id": "ZH",
                "value": "Africa Eastern and Southern"
            },
            "countryiso3code": "AFE",
            "date": "2004",
            "value": 985.530234702093,
            "unit": "",
            "obs_status": "",
            "decimal": 1
        },
        {
            "indicator": {
                "id": "NY.GDP.PCAP.CD",
                "value": "GDP per capita (current US$)"
            },
            "country": {
                "id": "ZH",
                "value": "Africa Eastern and Southern"
            },
            "countryiso3code": "AFE",
            "date": "2003",
            "value": 812.946403678434,
            "unit": "",
            "obs_status": "",
            "decimal": 1
        },
        {
            "indicator": {
                "id": "NY.GDP.PCAP.CD",
                "value": "GDP per capita (current US$)"
            },
            "country": {
                "id": "ZH",
                "value": "Africa Eastern and Southern"
            },
            "countryiso3code": "AFE",
            "date": "2002",
            "value": 626.559857118868,
            "unit": "",
            "obs_status": "",
            "decimal": 1
        },
        {
            "indicator": {
                "id": "NY.GDP.PCAP.CD",
                "value": "GDP per capita (current US$)"
            },
            "country": {
                "id": "ZH",
                "value": "Africa Eastern and Southern"
            },
            "countryiso3code": "AFE",
            "date": "2001",
            "value": 628.204190987065,
            "unit": "",
            "obs_status": "",
            "decimal": 1
        },
        {
            "indicator": {
                "id": "NY.GDP.PCAP.CD",
                "value": "GDP per capita (current US$)"
            },
            "country": {
                "id": "ZH",
                "value": "Africa Eastern and Southern"
            },
            "countryiso3code": "AFE",
            "date": "2000",
            "value": 706.992061499618,
            "unit": "",
            "obs_status": "",
            "decimal": 1
        },
        {
            "indicator": {
                "id": "NY.GDP.PCAP.CD",
                "value": "GDP per capita (current US$)"
            },
            "country": {
                "id": "ZH",
                "value": "Africa Eastern and Southern"
            },
            "countryiso3code": "AFE",
            "date": "1999",
            "value": 669.691425131614,
            "unit": "",
            "obs_status": "",
            "decimal": 1
        },
        {
            "indicator": {
                "id": "NY.GDP.PCAP.CD",
                "value": "GDP per capita (current US$)"
            },
            "country": {
                "id": "ZH",
                "value": "Africa Eastern and Southern"
            },
            "countryiso3code": "AFE",
            "date": "1998",
            "value": 696.374223795512,
            "unit": "",
            "obs_status": "",
            "decimal": 1
        },
        {
            "indicator": {
                "id": "NY.GDP.PCAP.CD",
                "value": "GDP per capita (current US$)"
            },
            "country": {
                "id": "ZH",
                "value": "Africa Eastern and Southern"
            },
            "countryiso3code": "AFE",
            "date": "1997",
            "value": 757.852239923975,
            "unit": "",
            "obs_status": "",
            "decimal": 1
        },
        {
            "indicator": {
                "id": "NY.GDP.PCAP.CD",
                "value": "GDP per capita (current US$)"
            },
            "country": {
                "id": "ZH",
                "value": "Africa Eastern and Southern"
            },
            "countryiso3code": "AFE",
            "date": "1996",
            "value": 739.468396383995,
            "unit": "",
            "obs_status": "",
            "decimal": 1
        },
        {
            "indicator": {
                "id": "NY.GDP.PCAP.CD",
                "value": "GDP per capita (current US$)"
            },
            "country": {
                "id": "ZH",
                "value": "Africa Eastern and Southern"
            },
            "countryiso3code": "AFE",
            "date": "1995",
            "value": 762.843520653108,
            "unit": "",
            "obs_status": "",
            "decimal": 1
        },
        {
            "indicator": {
                "id": "NY.GDP.PCAP.CD",
                "value": "GDP per capita (current US$)"
            },
            "country": {
                "id": "ZH",
                "value": "Africa Eastern and Southern"
            },
            "countryiso3code": "AFE",
            "date": "1994",
            "value": 697.183018306666,
            "unit": "",
            "obs_status": "",
            "decimal": 1
        },
        {
            "indicator": {
                "id": "NY.GDP.PCAP.CD",
                "value": "GDP per capita (current US$)"
            },
            "country": {
                "id": "ZH",
                "value": "Africa Eastern and Southern"
            },
            "countryiso3code": "AFE",
            "date": "1993",
            "value": 704.742867795043,
            "unit": "",
            "obs_status": "",
            "decimal": 1
        },
        {
            "indicator": {
                "id": "NY.GDP.PCAP.CD",
                "value": "GDP per capita (current US$)"
            },
            "country": {
                "id": "ZH",
                "value": "Africa Eastern and Southern"
            },
            "countryiso3code": "AFE",
            "date": "1992",
            "value": 728.765774345736,
            "unit": "",
            "obs_status": "",
            "decimal": 1
        },
        {
            "indicator": {
                "id": "NY.GDP.PCAP.CD",
                "value": "GDP per capita (current US$)"
            },
            "country": {
                "id": "ZH",
                "value": "Africa Eastern and Southern"
            },
            "countryiso3code": "AFE",
            "date": "1991",
            "value": 858.297836269341,
            "unit": "",
            "obs_status": "",
            "decimal": 1
        },
        {
            "indicator": {
                "id": "NY.GDP.PCAP.CD",
                "value": "GDP per capita (current US$)"
            },
            "country": {
                "id": "ZH",
                "value": "Africa Eastern and Southern"
            },
            "countryiso3code": "AFE",
            "date": "1990",
            "value": 817.148590996453,
            "unit": "",
            "obs_status": "",
            "decimal": 1
        },
        {
            "indicator": {
                "id": "NY.GDP.PCAP.CD",
                "value": "GDP per capita (current US$)"
            },
            "country": {
                "id": "ZH",
                "value": "Africa Eastern and Southern"
            },
            "countryiso3code": "AFE",
            "date": "1989",
            "value": 722.427496123105,
            "unit": "",
            "obs_status": "",
            "decimal": 1
        },
        {
            "indicator": {
                "id": "NY.GDP.PCAP.CD",
                "value": "GDP per capita (current US$)"
            },
            "country": {
                "id": "ZH",
                "value": "Africa Eastern and Southern"
            },
            "countryiso3code": "AFE",
            "date": "1988",
            "value": 697.217760088721,
            "unit": "",
            "obs_status": "",
            "decimal": 1
        },
        {
            "indicator": {
                "id": "NY.GDP.PCAP.CD",
                "value": "GDP per capita (current US$)"
            },
            "country": {
                "id": "ZH",
                "value": "Africa Eastern and Southern"
            },
            "countryiso3code": "AFE",
            "date": "1987",
            "value": 654.316006458531,
            "unit": "",
            "obs_status": "",
            "decimal": 1
        },
        {
            "indicator": {
                "id": "NY.GDP.PCAP.CD",
                "value": "GDP per capita (current US$)"
            },
            "country": {
                "id": "ZH",
                "value": "Africa Eastern and Southern"
            },
            "countryiso3code": "AFE",
            "date": "1986",
            "value": 552.536452041812,
            "unit": "",
            "obs_status": "",
            "decimal": 1
        },
        {
            "indicator": {
                "id": "NY.GDP.PCAP.CD",
                "value": "GDP per capita (current US$)"
            },
            "country": {
                "id": "ZH",
                "value": "Africa Eastern and Southern"
            },
            "countryiso3code": "AFE",
            "date": "1985",
            "value": 508.69498570539,
            "unit": "",
            "obs_status": "",
            "decimal": 1
        },
        {
            "indicator": {
                "id": "NY.GDP.PCAP.CD",
                "value": "GDP per capita (current US$)"
            },
            "country": {
                "id": "ZH",
                "value": "Africa Eastern and Southern"
            },
            "countryiso3code": "AFE",
            "date": "1984",
            "value": 615.411335878228,
            "unit": "",
            "obs_status": "",
            "decimal": 1
        },
        {
            "indicator": {
                "id": "NY.GDP.PCAP.CD",
                "value": "GDP per capita (current US$)"
            },
            "country": {
                "id": "ZH",
                "value": "Africa Eastern and Southern"
            },
            "countryiso3code": "AFE",
            "date": "1983",
            "value": 691.985452306824,
            "unit": "",
            "obs_status": "",
            "decimal": 1
        },
        {
            "indicator": {
                "id": "NY.GDP.PCAP.CD",
                "value": "GDP per capita (current US$)"
            },
            "country": {
                "id": "ZH",
                "value": "Africa Eastern and Southern"
            },
            "countryiso3code": "AFE",
            "date": "1982",
            "value": 681.650923427465,
            "unit": "",
            "obs_status": "",
            "decimal": 1
        },
        {
            "indicator": {
                "id": "NY.GDP.PCAP.CD",
                "value": "GDP per capita (current US$)"
            },
            "country": {
                "id": "ZH",
                "value": "Africa Eastern and Southern"
            },
            "countryiso3code": "AFE",
            "date": "1981",
            "value": 732.91885914001,
            "unit": "",
            "obs_status": "",
            "decimal": 1
        },
        {
            "indicator": {
                "id": "NY.GDP.PCAP.CD",
                "value": "GDP per capita (current US$)"
            },
            "country": {
                "id": "ZH",
                "value": "Africa Eastern and Southern"
            },
            "countryiso3code": "AFE",
            "date": "1980",
            "value": 738.873981812624,
            "unit": "",
            "obs_status": "",
            "decimal": 1
        },
        {
            "indicator": {
                "id": "NY.GDP.PCAP.CD",
                "value": "GDP per capita (current US$)"
            },
            "country": {
                "id": "ZH",
                "value": "Africa Eastern and Southern"
            },
            "countryiso3code": "AFE",
            "date": "1979",
            "value": 600.371094147825,
            "unit": "",
            "obs_status": "",
            "decimal": 1
        },
        {
            "indicator": {
                "id": "NY.GDP.PCAP.CD",
                "value": "GDP per capita (current US$)"
            },
            "country": {
                "id": "ZH",
                "value": "Africa Eastern and Southern"
            },
            "countryiso3code": "AFE",
            "date": "1978",
            "value": 530.372947888349,
            "unit": "",
            "obs_status": "",
            "decimal": 1
        },
        {
            "indicator": {
                "id": "NY.GDP.PCAP.CD",
                "value": "GDP per capita (current US$)"
            },
            "country": {
                "id": "ZH",
                "value": "Africa Eastern and Southern"
            },
            "countryiso3code": "AFE",
            "date": "1977",
            "value": 489.846966951667,
            "unit": "",
            "obs_status": "",
            "decimal": 1
        },
        {
            "indicator": {
                "id": "NY.GDP.PCAP.CD",
                "value": "GDP per capita (current US$)"
            },
            "country": {
                "id": "ZH",
                "value": "Africa Eastern and Southern"
            },
            "countryiso3code": "AFE",
            "date": "1976",
            "value": 444.075684766247,
            "unit": "",
            "obs_status": "",
            "decimal": 1
        },
        {
            "indicator": {
                "id": "NY.GDP.PCAP.CD",
                "value": "GDP per capita (current US$)"
            },
            "country": {
                "id": "ZH",
                "value": "Africa Eastern and Southern"
            },
            "countryiso3code": "AFE",
            "date": "1975",
            "value": 459.896340163853,
            "unit": "",
            "obs_status": "",
            "decimal": 1
        },
        {
            "indicator": {
                "id": "NY.GDP.PCAP.CD",
                "value": "GDP per capita (current US$)"
            },
            "country": {
                "id": "ZH",
                "value": "Africa Eastern and Southern"
            },
            "countryiso3code": "AFE",
            "date": "1974",
            "value": 444.717963926224,
            "unit": "",
            "obs_status": "",
            "decimal": 1
        },
        {
            "indicator": {
                "id": "NY.GDP.PCAP.CD",
                "value": "GDP per capita (current US$)"
            },
            "country": {
                "id": "ZH",
                "value": "Africa Eastern and Southern"
            },
            "countryiso3code": "AFE",
            "date": "1973",
            "value": 370.414638118579,
            "unit": "",
            "obs_status": "",
            "decimal": 1
        },
        {
            "indicator": {
                "id": "NY.GDP.PCAP.CD",
                "value": "GDP per capita (current US$)"
            },
            "country": {
                "id": "ZH",
                "value": "Africa Eastern and Southern"
            },
            "countryiso3code": "AFE",
            "date": "1972",
            "value": 293.075994931136,
            "unit": "",
            "obs_status": "",
            "decimal": 1
        }
    ]
]