[
    {
        "page": 1,
        "pages": 2,
        "per_page": 50,
        "total": 62,
        "sourceid": "2",
        "sourcename": "World Development Indicators",
        "lastupdated": "2022-12-22"
    },
    [
        {
            "indicator": {
                "id": "NY.GDP.PCAP.CD",
                "value": "GDP per capita (current US$)"
            },
            "country": {
                "id": "IN",
                "value": "India"
            },
            "countryiso3code": "IND",
            "date": "2021",
            "value": 2256.59040870506,
            "unit": "",
            "obs_status": "",
            "decimal": 1
        },
        {
            "indicator": {
                "id": "NY.GDP.PCAP.CD",
                "value": "GDP per capita (current US$)"
            },
            "country": {
                "id": "IN",
                "value": "India"
            },
            "countryiso3code": "IND",
            "date": "2020",
            "value": 1910.42147282449,
            "unit": "",
            "obs_status": "",
            "decimal": 1
        },
        {
            "indicator": {
                "id": "NY.GDP.PCAP.CD",
                "value": "GDP per capita (current US$)"
            },
            "country": {
                "id": "IN",
                "value": "India"
            },
            "countryiso3code": "IND",
            "date": "2019",
            "value": 2047.23270433512,
            "unit": "",
            "obs_status": "",
            "decimal": 1
        },
        {
            "indicator": {
                "id": "NY.GDP.PCAP.CD",
                "value": "GDP per capita (current US$)"
            },
            "country": {
                "id": "IN",
                "value": "India"
            },
            "countryiso3code": "IND",
            "date": "2018",
            "value": 1974.37778792366,
            "unit": "",
            "obs_status": "",
            "decimal": 1
        },
        {
            "indicator": {
                "id": "NY.GDP.PCAP.CD",
                "value": "GDP per capita (current US$)"
            },
            "country": {
                "id": "IN",
                "value": "India"
            },
            "countryiso3code": "IND",
            "date": "2017",
            "value": 1957.968841235,
            "unit": "",
            "obs_status": "",
            "decimal": 1
        },
        {
            "indicator": {
                "id": "NY.GDP.PCAP.CD",
                "value": "GDP per capita (current US$)"
            },
            "country": {
                "id": "IN",
                "value": "India"
            },
            "countryiso3code": "IND",
            "date": "2016",
            "value": 1714.28035526737,
            "unit": "",
            "obs_status": "",
            "decimal": 1
        },
        {
            "indicator": {
                "id": "NY.GDP.PCAP.CD",
                "value": "GDP per capita (current US$)"
            },
            "country": {
                "id": "IN",
                "value": "India"
            },
            "countryiso3code": "IND",
            "date": "2015",
            "value": 1590.17391842781,
            "unit": "",
            "obs_status": "",
            "decimal": 1
        },
        {
            "indicator": {
                "id": "NY.GDP.PCAP.CD",
                "value": "GDP per capita (current US$)"
            },
            "country": {
                "id": "IN",
                "value": "India"
            },
            "countryiso3code": "IND",
            "date": "2014",
            "value": 1559.86451848257,
            "unit": "",
            "obs_status": "",
            "decimal": 1
        },
        {
            "indicator": {
                "id": "NY.GDP.PCAP.CD",
                "value": "GDP per capita (current US$)"
            },
            "country": {
                "id": "IN",
                "value": "India"
            },
            "countryiso3code": "IND",
            "date": "2013",
            "value": 1438.05748041006,
            "unit": "",
            "obs_status": "",
            "decimal": 1
        },
        {
            "indicator": {
                "id": "NY.GDP.PCAP.CD",
                "value": "GDP per capita (current US$)"
            },
            "country": {
                "id": "IN",
                "value": "India"
            },
            "countryiso3code": "IND",
            "date": "2012",
            "value": 1434.01819806113,
            "unit": "",
            "obs_status": "",
            "decimal": 1
        },
        {
            "indicator": {
                "id": "NY.GDP.PCAP.CD",
                "value": "GDP per capita (current US$)"
            },
            "country": {
                "id": "IN",
                "value": "India"
            },
            "countryiso3code": "IND",
            "date": "2011",
            "value": 1449.60178853415,
            "unit": "",
            "obs_status": "",
            "decimal": 1
        },
        {
            "indicator": {
                "id": "NY.GDP.PCAP.CD",
                "value": "GDP per capita (current US$)"
            },
            "country": {
                "id": "IN",
                "value": "India"
            },
            "countryiso3code": "IND",
            "date": "2010",
            "value": 1350.63432207085,
            "unit": "",
            "obs_status": "",
            "decimal": 1
        },
        {
            "indicator": {
                "id": "NY.GDP.PCAP.CD",
                "value": "GDP per capita (current US$)"
            },
            "country": {
                "id": "IN",
                "value": "India"
            },
            "countryiso3code": "IND",
            "date": "2009",
            "value": 1096.63498033497,
            "unit": "",
            "obs_status": "",
            "decimal": 1
        },
        {
            "indicator": {
                "id": "NY.GDP.PCAP.CD",
                "value": "GDP per capita (current US$)"
            },
            "country": {
                "id": "IN",
                "value": "India"
            },
            "countryiso3code": "IND",
            "date": "2008",
            "value": 993.503772474691,
            "unit": "",
            "obs_status": "",
            "decimal": 1
        },
        {
            "indicator": {
                "id": "NY.GDP.PCAP.CD",
                "value": "GDP per capita (current US$)"
            },
            "country": {
                "id": "IN",
                "value": "India"
            },
            "countryiso3code": "IND",
            "date": "2007",
            "value": 1022.73162874643,
            "unit": "",
            "obs_status": "",
            "decimal": 1
        },
        {
            "indicator": {
                "id": "NY.GDP.PCAP.CD",
                "value": "GDP per capita (current US$)"
            },
            "country": {
                "id": "IN",
                "value": "India"
            },
            "countryiso3code": "IND",
            "date": "2006",
            "value": 802.01374204738,
            "unit": "",
            "obs_status": "",
            "decimal": 1
        },
        {
            "indicator": {
                "id": "NY.GDP.PCAP.CD",
                "value": "GDP per capita (current US$)"
            },
            "country": {
                "id": "IN",
                "value": "India"
            },
            "countryiso3code": "IND",
            "date": "2005",
            "value": 710.509344850714,
            "unit": "",
            "obs_status": "",
            "decimal": 1
        },
        {
            "indicator": {
                "id": "NY.GDP.PCAP.CD",
                "value": "GDP per capita (current US$)"
            },
            "country": {
                "id": "IN",
                "value": "India"
            },
            "countryiso3code": "IND",
            "date": "2004",
            "value": 624.105094371897,
            "unit": "",
            "obs_status": "",
            "decimal": 1
        },
        {
            "indicator": {
                "id": "NY.GDP.PCAP.CD",
                "value": "GDP per capita (current US$)"
            },
            "country": {
                "id": "IN",
                "value": "India"
            },
            "countryiso3code": "IND",
            "date": "2003",
            "value": 543.843798893951,
            "unit": "",
            "obs_status": "",
            "decimal": 1
        },
        {
            "indicator": {
                "id": "NY.GDP.PCAP.CD",
                "value": "GDP per capita (current US$)"
            },
            "country": {
                "id": "IN",
                "value": "India"
            },
            "countryiso3code": "IND",
            "date": "2002",
            "value": 468.84442830518,
            "unit": "",
            "obs_status": "",
            "decimal": 1
        },
        {
            "indicator": {
                "id": "NY.GDP.PCAP.CD",
                "value": "GDP per capita (current US$)"
            },
            "country": {
                "id": "IN",
                "value": "India"
            },
            "countryiso3code": "IND",
            "date": "2001",
            "value": 449.911124933268,
            "unit": "",
            "obs_status": "",
            "decimal": 1
        },
        {
            "indicator": {
                "id": "NY.GDP.PCAP.CD",
                "value": "GDP per capita (current US$)"
            },
            "country": {
                "id": "IN",
                "value": "India"
            },
            "countryiso3code": "IND",
            "date": "2000",
            "value": 442.034778917695,
            "unit": "",
            "obs_status": "",
            "decimal": 1
        },
        {
            "indicator": {
                "id": "NY.GDP.PCAP.CD",
                "value": "GDP per capita (current US$)"
            },
            "country": {
                "id": "IN",
                "value": "India"
            },
            "countryiso3code": "IND",
            "date": "1999",
            "value": 440.961454614021,
            "unit": "",
            "obs_status": "",
            "decimal": 1
        },
        {
            "indicator": {
                "id": "NY.GDP.PCAP.CD",
                "value": "GDP per capita (current US$)"
            },
            "country": {
                "id": "IN",
                "value": "India"
            },
            "countryiso3code": "IND",
            "date": "1998",
            "value": 412.509511039641,
            "unit": "",
            "obs_status": "",
            "decimal": 1
        },
        {
            "indicator": {
                "id": "NY.GDP.PCAP.CD",
                "value": "GDP per capita (current US$)"
            },
            "country": {
                "id": "IN",
                "value": "India"
            },
            "countryiso3code": "IND",
            "date": "1997",
            "value": 414.898869576673,
            "unit": "",
            "obs_status": "",
            "decimal": 1
        },
        {
            "indicator": {
                "id": "NY.GDP.PCAP.CD",
                "value": "GDP per capita (current US$)"
            },
            "country": {
                "id": "IN",
                "value": "India"
            },
            "countryiso3code": "IND",
            "date": "1996",
            "value": 399.577503521552,
            "unit": "",
            "obs_status": "",
            "decimal": 1
        },
        {
            "indicator": {
                "id": "NY.GDP.PCAP.CD",
                "value": "GDP per capita (current US$)"
            },
            "country": {
                "id": "IN",
                "value": "India"
            },
            "countryiso3code": "IND",
            "date": "1995",
            "value": 373.628280320062,
            "unit": "",
            "obs_status": "",
            "decimal": 1
        },
        {
            "indicator": {
                "id": "NY.GDP.PCAP.CD",
                "value": "GDP per capita (current US$)"
            },
            "country": {
                "id": "IN",
                "value": "India"
            },
            "countryiso3code": "IND",
            "date": "1994",
            "value": 346.227393126043,
            "unit": "",
            "obs_status": "",
            "decimal": 1
        },
        {
            "indicator": {
                "id": "NY.GDP.PCAP.CD",
                "value": "GDP per capita (current US$)"
            },
            "country": {
                "id": "IN",
                "value": "India"
            },
            "countryiso3code": "IND",
            "date": "1993",
            "value": 301.501194948853,
            "unit": "",
            "obs_status": "",
            "decimal": 1
        },
        {
            "indicator": {
                "id": "NY.GDP.PCAP.CD",
                "value": "GDP per capita (current US$)"
            },
            "country": {
                "id": "IN",
                "value": "India"
            },
            "countryiso3code": "IND",
            "date": "1992",
            "value": 317.559135479384,
            "unit": "",
            "obs_status": "",
            "decimal": 1
        },
        {
            "indicator": {
                "id": "NY.GDP.PCAP.CD",
                "value": "GDP per capita (current US$)"
            },
            "country": {
                "id": "IN",
                "value": "India"
            },
            "countryiso3code": "IND",
            "date": "1991",
            "value": 303.850437957407,
            "unit": "",
            "obs_status": "",
            "decimal": 1
        },
        {
            "indicator": {
                "id": "NY.GDP.PCAP.CD",
                "value": "GDP per capita (current US$)"
            },
            "country": {
                "id": "IN",
                "value": "India"
            },
            "countryiso3code": "IND",
            "date": "1990",
            "value": 368.749759408129,
            "unit": "",
            "obs_status": "",
            "decimal": 1
        },
        {
            "indicator": {
                "id": "NY.GDP.PCAP.CD",
                "value": "GDP per capita (current US$)"
            },
            "country": {
                "id": "IN",
                "value": "India"
            },
            "countryiso3code": "IND",
            "date": "1989",
            "value": 347.462384500091,
            "unit": "",
            "obs_status": "",
            "decimal": 1
        },
        {
            "indicator": {
                "id": "NY.GDP.PCAP.CD",
                "value": "GDP per capita (current US$)"
            },
            "country": {
                "id": "IN",
                "value": "India"
            },
            "countryiso3code": "IND",
            "date": "1988",
            "value": 355.737598854123,
            "unit": "",
            "obs_status": "",
            "decimal": 1
        },
        {
            "indicator": {
                "id": "NY.GDP.PCAP.CD",
                "value": "GDP per capita (current US$)"
            },
            "country": {
                "id": "IN",
                "value": "India"
            },
            "countryiso3code": "IND",
            "date": "1987",
            "value": 342.071923724964,
            "unit": "",
            "obs_status": "",
            "decimal": 1
        },
        {
            "indicator": {
                "id": "NY.GDP.PCAP.CD",
                "value": "GDP per capita (current US$)"
            },
            "country": {
                "id": "IN",
                "value": "India"
            },
            "countryiso3code": "IND",
            "date": "1986",
            "value": 312.059843942513,
            "unit": "",
            "obs_status": "",
            "decimal": 1
        },
        {
            "indicator": {
                "id": "NY.GDP.PCAP.CD",
                "value": "GDP per capita (current US$)"
            },
            "country": {
                "id": "IN",
                "value": "India"
            },
            "countryiso3code": "IND",
            "date": "1985",
            "value": 297.999662681228,
            "unit": "",
            "obs_status": "",
            "decimal": 1
        },
        {
            "indicator": {
                "id": "NY.GDP.PCAP.CD",
                "value": "GDP per capita (current US$)"
            },
            "country": {
                "id": "IN",
                "value": "India"
            },
            "countryiso3code": "IND",
            "date": "1984",
            "value": 278.096187266015,
            "unit": "",
            "obs_status": "",
            "decimal": 1
        },
        {
            "indicator": {
                "id": "NY.GDP.PCAP.CD",
                "value": "GDP per capita (current US$)"
            },
            "country": {
                "id": "IN",
                "value": "India"
            },
            "countryiso3code": "IND",
            "date": "1983",
            "value": 292.644817454605,
            "unit": "",
            "obs_status": "",
            "decimal": 1
        },
        {
            "indicator": {
                "id": "NY.GDP.PCAP.CD",
                "value": "GDP per capita (current US$)"
            },
            "country": {
                "id": "IN",
                "value": "India"
            },
            "countryiso3code": "IND",
            "date": "1982",
            "value": 275.265428301887,
            "unit": "",
            "obs_status": "",
            "decimal": 1
        },
        {
            "indicator": {
                "id": "NY.GDP.PCAP.CD",
                "value": "GDP per capita (current US$)"
            },
            "country": {
                "id": "IN",
                "value": "India"
            },
            "countryiso3code": "IND",
            "date": "1981",
            "value": 271.425085317378,
            "unit": "",
            "obs_status": "",
            "decimal": 1
        },
        {
            "indicator": {
                "id": "NY.GDP.PCAP.CD",
                "value": "GDP per capita (current US$)"
            },
            "country": {
                "id": "IN",
                "value": "India"
            },
            "countryiso3code": "IND",
            "date": "1980",
            "value": 267.390578652535,
            "unit": "",
            "obs_status": "",
            "decimal": 1
        },
        {
            "indicator": {
                "id": "NY.GDP.PCAP.CD",
                "value": "GDP per capita (current US$)"
            },
            "country": {
                "id": "IN",
                "value": "India"
            },
            "countryiso3code": "IND",
            "date": "1979",
            "value": 224.575437698719,
            "unit": "",
            "obs_status": "",
            "decimal": 1
        },
        {
            "indicator": {
                "id": "NY.GDP.PCAP.CD",
                "value": "GDP per capita (current US$)"
            },
            "country": {
                "id": "IN",
                "value": "India"
            },
            "countryiso3code": "IND",
            "date": "1978",
            "value": 206.073749258556,
            "unit": "",
            "obs_status": "",
            "decimal": 1
        },
        {
            "indicator": {
                "id": "NY.GDP.PCAP.CD",
                "value": "GDP per capita (current US$)"
            },
            "country": {
                "id": "IN",
                "value": "India"
            },
            "countryiso3code": "IND",
            "date": "1977",
            "value": 186.420134580461,
            "unit": "",
            "obs_status": "",
            "decimal": 1
        },
        {
            "indicator": {
                "id": "NY.GDP.PCAP.CD",
                "value": "GDP per capita (current US$)"
            },
            "country": {
                "id": "IN",
                "value": "India"
            },
            "countryiso3code": "IND",
            "date": "1976",
            "value": 161.137236080759,
            "unit": "",
            "obs_status": "",
            "decimal": 1
        },
        {
            "indicator": {
                "id": "NY.GDP.PCAP.CD",
                "value": "GDP per capita (current US$)"
            },
            "country": {
                "id": "IN",
                "value": "India"
            },
            "countryiso3code": "IND",
            "date": "1975",
            "value": 157.929385028241,
            "unit": "",
            "obs_status": "",
            "decimal": 1
        },
        {
            "indicator": {
                "id": "NY.GDP.PCAP.CD",
                "value": "GDP per capita (current US$)"
            },
            "country": {
                "id": "IN",
                "value": "India"
            },
            "countryiso3code": "IND",
            "date": "1974",
            "value": 163.231615579564,
            "unit": "",
            "obs_status": "",
            "decimal": 1
        },
        {
            "indicator": {
                "id": "NY.GDP.PCAP.CD",
                "value": "GDP per capita (current US$)"
            },
            "country": {
                "id": "IN",
                "value": "India"
            },
            "countryiso3code": "IND",
            "date": "1973",
            "value": 143.456124984427,
            "unit": "",
            "obs_status": "",
            "decimal": 1
        },
        {
            "indicator": {
                "id": "NY.GDP.PCAP.CD",
                "value": "GDP per capita (current US$)"
            },
            "country": {
                "id": "IN",
                "value": "India"
            },
            "countryiso3code": "IND",
            "date": "1972",
            "value": 122.612453445976,
            "unit": "",
            "obs_status": "",
            "decimal": 1
        }
    ]
]