[
 "description":   {
        "page": 1,
        "pages": 2,
        "per_page": 50,
        "total": 62,
        "sourceid": "2",
        "sourcename": "World Development Indicators",
        "lastupdated": "2022-12-22"
    },
[
        {
            "indicator": {
                "id": "NY.GDP.PCAP.CD",
                "value": "GDP per capita (current US$)"
            },
            "country": {
                "id": "AU",
                "value": "Australia"
            },
            "countryiso3code": "AUS",
            "date": "2021",
            "value": 60443.1091649968,
            "unit": "",
            "obs_status": "",
            "decimal": 1
        },
        {
            "indicator": {
                "id": "NY.GDP.PCAP.CD",
                "value": "GDP per capita (current US$)"
            },
            "country": {
                "id": "AU",
                "value": "Australia"
            },
            "countryiso3code": "AUS",
            "date": "2020",
            "value": 51720.3707634401,
            "unit": "",
            "obs_status": "",
            "decimal": 1
        },
        {
            "indicator": {
                "id": "NY.GDP.PCAP.CD",
                "value": "GDP per capita (current US$)"
            },
            "country": {
                "id": "AU",
                "value": "Australia"
            },
            "countryiso3code": "AUS",
            "date": "2019",
            "value": 54941.4341793948,
            "unit": "",
            "obs_status": "",
            "decimal": 1
        },
        {
            "indicator": {
                "id": "NY.GDP.PCAP.CD",
                "value": "GDP per capita (current US$)"
            },
            "country": {
                "id": "AU",
                "value": "Australia"
            },
            "countryiso3code": "AUS",
            "date": "2018",
            "value": 57207.8715094806,
            "unit": "",
            "obs_status": "",
            "decimal": 1
        },
        {
            "indicator": {
                "id": "NY.GDP.PCAP.CD",
                "value": "GDP per capita (current US$)"
            },
            "country": {
                "id": "AU",
                "value": "Australia"
            },
            "countryiso3code": "AUS",
            "date": "2017",
            "value": 53936.1402549903,
            "unit": "",
            "obs_status": "",
            "decimal": 1
        },
        {
            "indicator": {
                "id": "NY.GDP.PCAP.CD",
                "value": "GDP per capita (current US$)"
            },
            "country": {
                "id": "AU",
                "value": "Australia"
            },
            "countryiso3code": "AUS",
            "date": "2016",
            "value": 49875.5651433836,
            "unit": "",
            "obs_status": "",
            "decimal": 1
        },
        {
            "indicator": {
                "id": "NY.GDP.PCAP.CD",
                "value": "GDP per capita (current US$)"
            },
            "country": {
                "id": "AU",
                "value": "Australia"
            },
            "countryiso3code": "AUS",
            "date": "2015",
            "value": 56710.4457244504,
            "unit": "",
            "obs_status": "",
            "decimal": 1
        },
        {
            "indicator": {
                "id": "NY.GDP.PCAP.CD",
                "value": "GDP per capita (current US$)"
            },
            "country": {
                "id": "AU",
                "value": "Australia"
            },
            "countryiso3code": "AUS",
            "date": "2014",
            "value": 62513.4112171122,
            "unit": "",
            "obs_status": "",
            "decimal": 1
        },
        {
            "indicator": {
                "id": "NY.GDP.PCAP.CD",
                "value": "GDP per capita (current US$)"
            },
            "country": {
                "id": "AU",
                "value": "Australia"
            },
            "countryiso3code": "AUS",
            "date": "2013",
            "value": 68158.5797427053,
            "unit": "",
            "obs_status": "",
            "decimal": 1
        },
        {
            "indicator": {
                "id": "NY.GDP.PCAP.CD",
                "value": "GDP per capita (current US$)"
            },
            "country": {
                "id": "AU",
                "value": "Australia"
            },
            "countryiso3code": "AUS",
            "date": "2012",
            "value": 68044.714816234,
            "unit": "",
            "obs_status": "",
            "decimal": 1
        },
        {
            "indicator": {
                "id": "NY.GDP.PCAP.CD",
                "value": "GDP per capita (current US$)"
            },
            "country": {
                "id": "AU",
                "value": "Australia"
            },
            "countryiso3code": "AUS",
            "date": "2011",
            "value": 62596.4321748915,
            "unit": "",
            "obs_status": "",
            "decimal": 1
        },
        {
            "indicator": {
                "id": "NY.GDP.PCAP.CD",
                "value": "GDP per capita (current US$)"
            },
            "country": {
                "id": "AU",
                "value": "Australia"
            },
            "countryiso3code": "AUS",
            "date": "2010",
            "value": 52134.3088504199,
            "unit": "",
            "obs_status": "",
            "decimal": 1
        },
        {
            "indicator": {
                "id": "NY.GDP.PCAP.CD",
                "value": "GDP per capita (current US$)"
            },
            "country": {
                "id": "AU",
                "value": "Australia"
            },
            "countryiso3code": "AUS",
            "date": "2009",
            "value": 42810.331655139,
            "unit": "",
            "obs_status": "",
            "decimal": 1
        },
        {
            "indicator": {
                "id": "NY.GDP.PCAP.CD",
                "value": "GDP per capita (current US$)"
            },
            "country": {
                "id": "AU",
                "value": "Australia"
            },
            "countryiso3code": "AUS",
            "date": "2008",
            "value": 49679.1805279842,
            "unit": "",
            "obs_status": "",
            "decimal": 1
        },
        {
            "indicator": {
                "id": "NY.GDP.PCAP.CD",
                "value": "GDP per capita (current US$)"
            },
            "country": {
                "id": "AU",
                "value": "Australia"
            },
            "countryiso3code": "AUS",
            "date": "2007",
            "value": 41023.7548562293,
            "unit": "",
            "obs_status": "",
            "decimal": 1
        },
        {
            "indicator": {
                "id": "NY.GDP.PCAP.CD",
                "value": "GDP per capita (current US$)"
            },
            "country": {
                "id": "AU",
                "value": "Australia"
            },
            "countryiso3code": "AUS",
            "date": "2006",
            "value": 36570.7203684146,
            "unit": "",
            "obs_status": "",
            "decimal": 1
        },
        {
            "indicator": {
                "id": "NY.GDP.PCAP.CD",
                "value": "GDP per capita (current US$)"
            },
            "country": {
                "id": "AU",
                "value": "Australia"
            },
            "countryiso3code": "AUS",
            "date": "2005",
            "value": 34461.7087799639,
            "unit": "",
            "obs_status": "",
            "decimal": 1
        },
        {
            "indicator": {
                "id": "NY.GDP.PCAP.CD",
                "value": "GDP per capita (current US$)"
            },
            "country": {
                "id": "AU",
                "value": "Australia"
            },
            "countryiso3code": "AUS",
            "date": "2004",
            "value": 30819.9934867745,
            "unit": "",
            "obs_status": "",
            "decimal": 1
        },
        {
            "indicator": {
                "id": "NY.GDP.PCAP.CD",
                "value": "GDP per capita (current US$)"
            },
            "country": {
                "id": "AU",
                "value": "Australia"
            },
            "countryiso3code": "AUS",
            "date": "2003",
            "value": 23705.9072163917,
            "unit": "",
            "obs_status": "",
            "decimal": 1
        },
        {
            "indicator": {
                "id": "NY.GDP.PCAP.CD",
                "value": "GDP per capita (current US$)"
            },
            "country": {
                "id": "AU",
                "value": "Australia"
            },
            "countryiso3code": "AUS",
            "date": "2002",
            "value": 20291.1785479686,
            "unit": "",
            "obs_status": "",
            "decimal": 1
        },
        {
            "indicator": {
                "id": "NY.GDP.PCAP.CD",
                "value": "GDP per capita (current US$)"
            },
            "country": {
                "id": "AU",
                "value": "Australia"
            },
            "countryiso3code": "AUS",
            "date": "2001",
            "value": 19681.6626363573,
            "unit": "",
            "obs_status": "",
            "decimal": 1
        },
        {
            "indicator": {
                "id": "NY.GDP.PCAP.CD",
                "value": "GDP per capita (current US$)"
            },
            "country": {
                "id": "AU",
                "value": "Australia"
            },
            "countryiso3code": "AUS",
            "date": "2000",
            "value": 21853.781667691,
            "unit": "",
            "obs_status": "",
            "decimal": 1
        },
        {
            "indicator": {
                "id": "NY.GDP.PCAP.CD",
                "value": "GDP per capita (current US$)"
            },
            "country": {
                "id": "AU",
                "value": "Australia"
            },
            "countryiso3code": "AUS",
            "date": "1999",
            "value": 20698.7127028167,
            "unit": "",
            "obs_status": "",
            "decimal": 1
        },
        {
            "indicator": {
                "id": "NY.GDP.PCAP.CD",
                "value": "GDP per capita (current US$)"
            },
            "country": {
                "id": "AU",
                "value": "Australia"
            },
            "countryiso3code": "AUS",
            "date": "1998",
            "value": 21478.3851573346,
            "unit": "",
            "obs_status": "",
            "decimal": 1
        },
        {
            "indicator": {
                "id": "NY.GDP.PCAP.CD",
                "value": "GDP per capita (current US$)"
            },
            "country": {
                "id": "AU",
                "value": "Australia"
            },
            "countryiso3code": "AUS",
            "date": "1997",
            "value": 23645.0883283773,
            "unit": "",
            "obs_status": "",
            "decimal": 1
        },
        {
            "indicator": {
                "id": "NY.GDP.PCAP.CD",
                "value": "GDP per capita (current US$)"
            },
            "country": {
                "id": "AU",
                "value": "Australia"
            },
            "countryiso3code": "AUS",
            "date": "1996",
            "value": 22020.093721362,
            "unit": "",
            "obs_status": "",
            "decimal": 1
        },
        {
            "indicator": {
                "id": "NY.GDP.PCAP.CD",
                "value": "GDP per capita (current US$)"
            },
            "country": {
                "id": "AU",
                "value": "Australia"
            },
            "countryiso3code": "AUS",
            "date": "1995",
            "value": 20446.7198474713,
            "unit": "",
            "obs_status": "",
            "decimal": 1
        },
        {
            "indicator": {
                "id": "NY.GDP.PCAP.CD",
                "value": "GDP per capita (current US$)"
            },
            "country": {
                "id": "AU",
                "value": "Australia"
            },
            "countryiso3code": "AUS",
            "date": "1994",
            "value": 18129.7907198601,
            "unit": "",
            "obs_status": "",
            "decimal": 1
        },
        {
            "indicator": {
                "id": "NY.GDP.PCAP.CD",
                "value": "GDP per capita (current US$)"
            },
            "country": {
                "id": "AU",
                "value": "Australia"
            },
            "countryiso3code": "AUS",
            "date": "1993",
            "value": 17700.1155557894,
            "unit": "",
            "obs_status": "",
            "decimal": 1
        },
        {
            "indicator": {
                "id": "NY.GDP.PCAP.CD",
                "value": "GDP per capita (current US$)"
            },
            "country": {
                "id": "AU",
                "value": "Australia"
            },
            "countryiso3code": "AUS",
            "date": "1992",
            "value": 18624.5550841793,
            "unit": "",
            "obs_status": "",
            "decimal": 1
        },
        {
            "indicator": {
                "id": "NY.GDP.PCAP.CD",
                "value": "GDP per capita (current US$)"
            },
            "country": {
                "id": "AU",
                "value": "Australia"
            },
            "countryiso3code": "AUS",
            "date": "1991",
            "value": 18860.5815907438,
            "unit": "",
            "obs_status": "",
            "decimal": 1
        },
        {
            "indicator": {
                "id": "NY.GDP.PCAP.CD",
                "value": "GDP per capita (current US$)"
            },
            "country": {
                "id": "AU",
                "value": "Australia"
            },
            "countryiso3code": "AUS",
            "date": "1990",
            "value": 18249.7094846628,
            "unit": "",
            "obs_status": "",
            "decimal": 1
        },
        {
            "indicator": {
                "id": "NY.GDP.PCAP.CD",
                "value": "GDP per capita (current US$)"
            },
            "country": {
                "id": "AU",
                "value": "Australia"
            },
            "countryiso3code": "AUS",
            "date": "1989",
            "value": 17834.5688669242,
            "unit": "",
            "obs_status": "",
            "decimal": 1
        },
        {
            "indicator": {
                "id": "NY.GDP.PCAP.CD",
                "value": "GDP per capita (current US$)"
            },
            "country": {
                "id": "AU",
                "value": "Australia"
            },
            "countryiso3code": "AUS",
            "date": "1988",
            "value": 14284.5158135864,
            "unit": "",
            "obs_status": "",
            "decimal": 1
        },
        {
            "indicator": {
                "id": "NY.GDP.PCAP.CD",
                "value": "GDP per capita (current US$)"
            },
            "country": {
                "id": "AU",
                "value": "Australia"
            },
            "countryiso3code": "AUS",
            "date": "1987",
            "value": 11650.8418747976,
            "unit": "",
            "obs_status": "",
            "decimal": 1
        },
        {
            "indicator": {
                "id": "NY.GDP.PCAP.CD",
                "value": "GDP per capita (current US$)"
            },
            "country": {
                "id": "AU",
                "value": "Australia"
            },
            "countryiso3code": "AUS",
            "date": "1986",
            "value": 11391.4367051223,
            "unit": "",
            "obs_status": "",
            "decimal": 1
        },
        {
            "indicator": {
                "id": "NY.GDP.PCAP.CD",
                "value": "GDP per capita (current US$)"
            },
            "country": {
                "id": "AU",
                "value": "Australia"
            },
            "countryiso3code": "AUS",
            "date": "1985",
            "value": 11440.9685687363,
            "unit": "",
            "obs_status": "",
            "decimal": 1
        },
        {
            "indicator": {
                "id": "NY.GDP.PCAP.CD",
                "value": "GDP per capita (current US$)"
            },
            "country": {
                "id": "AU",
                "value": "Australia"
            },
            "countryiso3code": "AUS",
            "date": "1984",
            "value": 12421.4925977337,
            "unit": "",
            "obs_status": "",
            "decimal": 1
        },
        {
            "indicator": {
                "id": "NY.GDP.PCAP.CD",
                "value": "GDP per capita (current US$)"
            },
            "country": {
                "id": "AU",
                "value": "Australia"
            },
            "countryiso3code": "AUS",
            "date": "1983",
            "value": 11515.7384250381,
            "unit": "",
            "obs_status": "",
            "decimal": 1
        },
        {
            "indicator": {
                "id": "NY.GDP.PCAP.CD",
                "value": "GDP per capita (current US$)"
            },
            "country": {
                "id": "AU",
                "value": "Australia"
            },
            "countryiso3code": "AUS",
            "date": "1982",
            "value": 12778.855250056,
            "unit": "",
            "obs_status": "",
            "decimal": 1
        },
        {
            "indicator": {
                "id": "NY.GDP.PCAP.CD",
                "value": "GDP per capita (current US$)"
            },
            "country": {
                "id": "AU",
                "value": "Australia"
            },
            "countryiso3code": "AUS",
            "date": "1981",
            "value": 11853.4360174361,
            "unit": "",
            "obs_status": "",
            "decimal": 1
        },
        {
            "indicator": {
                "id": "NY.GDP.PCAP.CD",
                "value": "GDP per capita (current US$)"
            },
            "country": {
                "id": "AU",
                "value": "Australia"
            },
            "countryiso3code": "AUS",
            "date": "1980",
            "value": 10208.5761716721,
            "unit": "",
            "obs_status": "",
            "decimal": 1
        },
        {
            "indicator": {
                "id": "NY.GDP.PCAP.CD",
                "value": "GDP per capita (current US$)"
            },
            "country": {
                "id": "AU",
                "value": "Australia"
            },
            "countryiso3code": "AUS",
            "date": "1979",
            "value": 9294.35924726014,
            "unit": "",
            "obs_status": "",
            "decimal": 1
        },
        {
            "indicator": {
                "id": "NY.GDP.PCAP.CD",
                "value": "GDP per capita (current US$)"
            },
            "country": {
                "id": "AU",
                "value": "Australia"
            },
            "countryiso3code": "AUS",
            "date": "1978",
            "value": 8252.91653378951,
            "unit": "",
            "obs_status": "",
            "decimal": 1
        },
        {
            "indicator": {
                "id": "NY.GDP.PCAP.CD",
                "value": "GDP per capita (current US$)"
            },
            "country": {
                "id": "AU",
                "value": "Australia"
            },
            "countryiso3code": "AUS",
            "date": "1977",
            "value": 7775.57764482147,
            "unit": "",
            "obs_status": "",
            "decimal": 1
        },
        {
            "indicator": {
                "id": "NY.GDP.PCAP.CD",
                "value": "GDP per capita (current US$)"
            },
            "country": {
                "id": "AU",
                "value": "Australia"
            },
            "countryiso3code": "AUS",
            "date": "1976",
            "value": 7487.07897464755,
            "unit": "",
            "obs_status": "",
            "decimal": 1
        },
        {
            "indicator": {
                "id": "NY.GDP.PCAP.CD",
                "value": "GDP per capita (current US$)"
            },
            "country": {
                "id": "AU",
                "value": "Australia"
            },
            "countryiso3code": "AUS",
            "date": "1975",
            "value": 7003.84247098582,
            "unit": "",
            "obs_status": "",
            "decimal": 1
        },
        {
            "indicator": {
                "id": "NY.GDP.PCAP.CD",
                "value": "GDP per capita (current US$)"
            },
            "country": {
                "id": "AU",
                "value": "Australia"
            },
            "countryiso3code": "AUS",
            "date": "1974",
            "value": 6482.83108182526,
            "unit": "",
            "obs_status": "",
            "decimal": 1
        },
        {
            "indicator": {
                "id": "NY.GDP.PCAP.CD",
                "value": "GDP per capita (current US$)"
            },
            "country": {
                "id": "AU",
                "value": "Australia"
            },
            "countryiso3code": "AUS",
            "date": "1973",
            "value": 4770.71441498637,
            "unit": "",
            "obs_status": "",
            "decimal": 1
        },
        {
            "indicator": {
                "id": "NY.GDP.PCAP.CD",
                "value": "GDP per capita (current US$)"
            },
            "country": {
                "id": "AU",
                "value": "Australia"
            },
            "countryiso3code": "AUS",
            "date": "1972",
            "value": 3949.46164337606,
            "unit": "",
            "obs_status": "",
            "decimal": 1
        }
    ]
]
